3 山峦图 | 进阶 R 图形
…
下面是一个用 geom_density_ridges_gradient() 的例子：

注意这里我们映射到 fill 上的不是原数据集中的变量 temperature，而是生成变量 ..x..。
因为geom_density_ridges_gradient 的统计变换 stat_density_ridges 在估计密度同时生成了新的 x 轴变量

lincoln_weather  ## 顺便提一下，这是个典型的 messy dataset

## # A tibble: 366 x 24
##    CST   `Max Temperatur~ `Mean Temperatu~ `Min Temperatur~
##    <chr>            <int>            <int>            <int>
##  1 2016~               37               24               11
##  2 2016~               41               23                5
##  3 2016~               37               23                8
##  4 2016~               30               17                4
##  5 2016~               38               29               19
##  6 2016~               34               33               32
##  7 2016~               33               30               27
##  8 2016~               28               25               22
##  9 2016~               22                9               -4
## 10 2016~               31               11               -9
## # ... with 356 more rows, and 20 more variables: `Max Dew Point
## #   [F]` <int>, `Mean Dew Point [F]` <int>, `Min Dewpoint [F]` <int>, `Max
## #   Humidity` <int>, `Mean Humidity` <int>, `Min Humidity` <int>, `Max Sea
## #   Level Pressure [In]` <dbl>, `Mean Sea Level Pressure [In]` <dbl>, `Min
## #   Sea Level Pressure [In]` <dbl>, `Max Visibility [Miles]` <int>, `Mean
## #   Visibility [Miles]` <int>, `Min Visibility [Miles]` <int>, `Max Wind
## #   Speed [MPH]` <int>, `Mean Wind Speed[MPH]` <int>, `Max Gust Speed
## #   [MPH]` <int>, `Precipitation [In]` <chr>, CloudCover <int>,
## #   Events <chr>, `WindDir [Degrees]` <int>, Month <fct>
…
