4 bbplot | 进阶 R 图形
…
svae_filepath:图表的保存路径，需要包括.png 后缀。

width_pixels:默认 640 px。hieght_pixels:，默认 450 px。

logo_image_path:指定在图表右下角需要展示的 logo 保存的位置。默认是一个 png 格式的占位文件，颜色和图表的背景色一样。如果你不需要展示 logo， 则无需调整此参数。当你想给图表增加 logo 时，通过此参数指定 logo 的位置即可。

4.2 折线图

使用 gapminder 数据集作一些试验：

library(gapminder)
gapminder

## # A tibble: 1,704 x 6
##    country     continent  year lifeExp      pop gdpPercap
##    <fct>       <fct>     <int>   <dbl>    <int>     <dbl>
##  1 Afghanistan Asia       1952    28.8  8425333      779.
##  2 Afghanistan Asia       1957    30.3  9240934      821.
##  3 Afghanistan Asia       1962    32.0 10267083      853.
##  4 Afghanistan Asia       1967    34.0 11537966      836.
##  5 Afghanistan Asia       1972    36.1 13079460      740.
##  6 Afghanistan Asia       1977    38.4 14880372      786.
##  7 Afghanistan Asia       1982    39.9 12881816      978.
##  8 Afghanistan Asia       1987    40.8 13867957      852.
##  9 Afghanistan Asia       1992    41.7 16317921      649.
## 10 Afghanistan Asia       1997    41.8 22227415      635.
## # ... with 1,694 more rows
…
