1 经济学人：Corruption and human development | 进阶 R 图形
…
数据： data\EconomistData.csv

library(tidyverse)

corruption <- read_csv("data\\EconomistData.csv")
corruption

## # A tibble: 173 x 5
##    Country     HDI.Rank   HDI   CPI Region           
##    <chr>          <dbl> <dbl> <dbl> <chr>            
##  1 Afghanistan      172 0.398   1.5 Asia Pacific     
##  2 Albania           70 0.739   3.1 East EU Cemt Asia
##  3 Algeria           96 0.698   2.9 MENA             
##  4 Angola           148 0.486   2   SSA              
##  5 Argentina         45 0.797   3   Americas         
##  6 Armenia           86 0.716   2.6 East EU Cemt Asia
##  7 Australia          2 0.929   8.8 Asia Pacific     
##  8 Austria           19 0.885   7.8 EU W. Europe     
##  9 Azerbaijan        91 0.7     2.4 East EU Cemt Asia
## 10 Bahamas           53 0.771   7.3 Americas         
## # ... with 163 more rows
…
